PLSC 31101: Introduction To Computational Tools And Techniques For Social Science
…
Challenge 2. Use dplyr to add a column to the gapminder dataset that contains the total population of the continent of each observation in a given year. For example, if the first observation is Afghanistan in 1952, the new column would contain the population of Asia in 1952.

gap %>%
  group_by(continent, year) %>%
  mutate(continent_pop = sum(pop))
#> # A tibble: 1,704 x 7
#> # Groups:   continent, year [60]
#>   country      year      pop continent lifeExp gdpPercap continent_pop
#>   <fct>       <int>    <dbl> <fct>       <dbl>     <dbl>         <dbl>
#> 1 Afghanistan  1952  8425333 Asia         28.8      779.   1395357352.
#> 2 Afghanistan  1957  9240934 Asia         30.3      821.   1562780599 
#> 3 Afghanistan  1962 10267083 Asia         32.0      853.   1696357182 
#> 4 Afghanistan  1967 11537966 Asia         34.0      836.   1905662900 
#> 5 Afghanistan  1972 13079460 Asia         36.1      740.   2150972248 
#> 6 Afghanistan  1977 14880372 Asia         38.4      786.   2384513556 
#> # … with 1,698 more rows

Challenge 3. Use dplyr to: (a) add a column called gdpPercap_diff that contains the difference between the observation’s gdpPercap and the mean gdpPercap of the continent in that year, (b) arrange the dataframe by the column you just created, in descending order (so that the relatively richest country-years are listed first).

hint: You might have to ungroup() before you arrange().

gap %>%
  group_by(continent, year) %>%
  mutate(mean_gdpPercap = mean(gdpPercap)) %>%
  ungroup() %>%
  mutate(gdpPercap_diff = gdpPercap - mean_gdpPercap) %>%
  select(-mean_gdpPercap) %>%
  arrange(desc(gdpPercap_diff))
#> # A tibble: 1,704 x 7
#>   country  year     pop continent lifeExp gdpPercap gdpPercap_diff
#>   <fct>   <int>   <dbl> <fct>       <dbl>     <dbl>          <dbl>
#> 1 Kuwait   1957  212846 Asia         58.0   113523.        107735.
#> 2 Kuwait   1952  160000 Asia         55.6   108382.        103187.
#> 3 Kuwait   1972  841934 Asia         67.7   109348.        101160.
#> 4 Kuwait   1962  358266 Asia         60.5    95458.         89729.
#> 5 Kuwait   1967  575003 Asia         64.6    80895.         74924.
#> 6 Kuwait   1977 1140357 Asia         69.3    59265.         51474.
#> # … with 1,698 more rows
…
Why didn’t your query return 2,000 results?

Identify the user that has used either the hashtag or the string in the greatest number of tweets – where is this user from?

duke <- search_tweets(
  q = '#DukeEllington OR "Duke Ellington"',
  n = 2000,
  include_rts = FALSE
)

duke %>%
  group_by(user_id, location) %>%
  summarise(n = n()) %>%
  arrange(desc(n))
#> # A tibble: 657 x 3
#> # Groups:   user_id [657]
#>   user_id             location                           n
#>   <chr>               <chr>                          <int>
#> 1 2561373848          Florida, USA                      91
#> 2 764290456599396353  Rochester, New York               51
#> 3 1030069194539368448 ""                                34
#> 4 1022122568004894720 ""                                33
#> 5 714738130557992960  Chiclana de la Frontera, Spain    28
#> 6 826869114           Paris, Ile-de-France              27
#> # … with 651 more rows
…
